<?xml version="1.0" encoding="utf-8"?>
<svg version="1.1" id="Layer_1" xmlns="http://www.w3.org/2000/svg" xmlns:xlink="http://www.w3.org/1999/xlink"
x="0px" y="0px"  width="35px" height="35px" viewBox="0 0 35 35"
enable-background="new 0 0 35 35" xml:space="preserve">
	<g>
		<g>
			<path d="M2 2 L 33 2 L 33 33 L 2 33 Z" fill="none" stroke="white" stroke-width="2"/>
		</g>
		<g>
			<path d="M 33 4 L 33 32 L 18 17.5 Z" fill="white"/>
		</g>
	</g>
</svg>